^E:\6.SEMESTAR\IRG\IRG_LABOSI\IRG\IRGPRIMJERI\RG_LABOS1\SOURCE.CPP
E:\6.SEMESTAR\IRG\IRG_LABOSI\IRG\IRGPRIMJERI\RG_LABOS1\DEBUG\VC141.PDB
E:\6.SEMESTAR\IRG\IRG_LABOSI\IRG\IRGPRIMJERI\RG_LABOS1\DEBUG\VC141.IDB
E:\6.SEMESTAR\IRG\IRG_LABOSI\IRG\IRGPRIMJERI\RG_LABOS1\DEBUG\SOURCE.OBJ
